[ { "page" : 1,
    "per_page" : 5,
    "total_entries" : 241,
    "total_pages" : 17
},
    [ 
        
    ]
]